<svg width="938" height="263" viewBox="0 0 938 263" fill="none" xmlns="http://www.w3.org/2000/svg">
<path d="M777.96 155.061C791.191 155.061 801.917 144.341 801.917 131.118C801.917 117.895 791.191 107.175 777.96 107.175C764.73 107.175 754.004 117.895 754.004 131.118C754.004 144.341 764.73 155.061 777.96 155.061Z" fill="#EF564C"/>
<path d="M768.86 226.843H767.978V261.667H768.86V226.843Z" fill="#3F3D56"/>
<path d="M777.001 231.281C777.057 243.458 768.485 253.369 768.485 253.369C768.485 253.369 759.822 243.537 759.766 231.36C759.71 219.183 768.282 209.272 768.282 209.272C768.282 209.272 776.945 219.103 777.001 231.281Z" fill="#6C63FF"/>
<path opacity="0.1" d="M777.001 231.281C777.057 243.458 768.485 253.369 768.485 253.369C768.485 253.369 759.822 243.537 759.766 231.36C759.71 219.183 768.282 209.272 768.282 209.272C768.282 209.272 776.945 219.103 777.001 231.281Z" fill="black"/>
<path opacity="0.4" d="M758.853 156.472C766.465 156.472 772.635 150.305 772.635 142.697C772.635 135.09 766.465 128.923 758.853 128.923C751.242 128.923 745.071 135.09 745.071 142.697C745.071 150.305 751.242 156.472 758.853 156.472Z" fill="#6C63FF"/>
<path d="M49.9561 140.776C36.7255 140.776 26 130.057 26 116.833C26 103.61 36.7255 92.8903 49.9561 92.8903C63.1867 92.8903 73.9122 103.61 73.9122 116.833C73.9122 130.057 63.1867 140.776 49.9561 140.776Z" fill="#EF564C"/>
<path opacity="0.4" d="M69.0633 142.187C61.4517 142.187 55.2812 136.02 55.2812 128.413C55.2812 120.805 61.4517 114.638 69.0633 114.638C76.675 114.638 82.8454 120.805 82.8454 128.413C82.8454 136.02 76.675 142.187 69.0633 142.187Z" fill="#6C63FF"/>
<path d="M676.074 257.795C676.821 260.555 679.381 262.265 679.381 262.265C679.381 262.265 680.728 259.499 679.981 256.739C679.234 253.978 676.675 252.269 676.675 252.269C676.675 252.269 675.327 255.035 676.074 257.795Z" fill="#3F3D56"/>
<path d="M677.172 257.202C679.222 259.196 679.473 262.263 679.473 262.263C679.473 262.263 676.399 262.095 674.349 260.1C672.299 258.106 672.048 255.039 672.048 255.039C672.048 255.039 675.122 255.207 677.172 257.202Z" fill="#6C63FF"/>
<path d="M682.639 185.981L679.598 183.549L696.629 168.351H739.815V181.726L711.836 200.571L682.639 185.981Z" fill="#3F3D56"/>
<path d="M747.689 176.877V168.655H741.955V170.669L739.815 168.351L725.826 183.549L720.352 187.197L711.863 249.177L724.664 261.971H754.414V184.157L747.689 176.877Z" fill="#CCCCCC"/>
<path d="M725.825 183.549H679.598V261.971H725.825V183.549Z" fill="#F2F2F2"/>
<path d="M706.058 242.821H697.542V261.971H706.058V242.821Z" fill="#CCCCCC"/>
<path d="M688.418 248.293V245.253H684.768V248.293H688.114H688.418Z" fill="#3F3D56"/>
<path d="M688.114 250.724H684.768V253.764H688.418V250.724H688.114Z" fill="#3F3D56"/>
<path d="M694.501 245.253H690.851V248.293H694.501V245.253Z" fill="#3F3D56"/>
<path d="M694.501 250.724H690.851V253.764H694.501V250.724Z" fill="#3F3D56"/>
<path d="M713.356 248.293V245.253H709.707V248.293H713.052H713.356Z" fill="#3F3D56"/>
<path d="M713.052 250.724H709.707V253.764H713.356V250.724H713.052Z" fill="#3F3D56"/>
<path d="M719.439 245.253H715.789V248.293H719.439V245.253Z" fill="#3F3D56"/>
<path d="M719.439 250.724H715.789V253.764H719.439V250.724Z" fill="#3F3D56"/>
<path d="M738.903 187.501V184.461H735.254V187.501H738.599H738.903Z" fill="#3F3D56"/>
<path d="M738.599 189.933H735.254V192.972H738.903V189.933H738.599Z" fill="#3F3D56"/>
<path d="M744.985 184.461H741.336V187.501H744.985V184.461Z" fill="#3F3D56"/>
<path d="M744.985 189.932H741.336V192.972H744.985V189.932Z" fill="#3F3D56"/>
<path d="M738.903 204.523V201.483H735.254V204.523H738.599H738.903Z" fill="#3F3D56"/>
<path d="M738.599 206.954H735.254V209.994H738.903V206.954H738.599Z" fill="#3F3D56"/>
<path d="M744.985 201.483H741.336V204.522H744.985V201.483Z" fill="#3F3D56"/>
<path d="M744.985 206.954H741.336V209.994H744.985V206.954Z" fill="#3F3D56"/>
<path d="M738.903 221.544V218.504H735.254V221.544H738.599H738.903Z" fill="#3F3D56"/>
<path d="M738.599 223.976H735.254V227.015H738.903V223.976H738.599Z" fill="#3F3D56"/>
<path d="M744.985 218.505H741.336V221.544H744.985V218.505Z" fill="#3F3D56"/>
<path d="M744.985 223.976H741.336V227.015H744.985V223.976Z" fill="#3F3D56"/>
<path d="M738.903 238.566V235.526H735.254V238.566H738.599H738.903Z" fill="#3F3D56"/>
<path d="M738.599 240.998H735.254V244.037H738.903V240.998H738.599Z" fill="#3F3D56"/>
<path d="M744.985 235.526H741.336V238.566H744.985V235.526Z" fill="#3F3D56"/>
<path d="M744.985 240.998H741.336V244.037H744.985V240.998Z" fill="#3F3D56"/>
<path d="M720.047 187.501H684.768V194.796H720.047V187.501Z" fill="#3F3D56"/>
<path d="M720.047 202.091H684.768V209.386H720.047V202.091Z" fill="#3F3D56"/>
<path d="M720.047 216.681H684.768V223.976H720.047V216.681Z" fill="#3F3D56"/>
<path d="M720.047 231.271H684.768V238.566H720.047V231.271Z" fill="#3F3D56"/>
<path d="M780.114 185.981L777.073 183.549L794.104 168.351H837.289V181.726L809.31 200.571L780.114 185.981Z" fill="#3F3D56"/>
<path d="M845.163 176.877V168.655H839.429V170.669L837.289 168.351L823.299 183.549L817.825 187.197L809.337 249.177L822.138 261.971H851.887V184.157L845.163 176.877Z" fill="#CCCCCC"/>
<path d="M823.299 183.549H777.072V261.971H823.299V183.549Z" fill="#F2F2F2"/>
<path d="M803.531 242.821H795.016V261.971H803.531V242.821Z" fill="#CCCCCC"/>
<path d="M785.892 248.293V245.253H782.243V248.293H785.588H785.892Z" fill="#3F3D56"/>
<path d="M785.588 250.724H782.243V253.764H785.892V250.724H785.588Z" fill="#3F3D56"/>
<path d="M791.974 245.253H788.325V248.293H791.974V245.253Z" fill="#3F3D56"/>
<path d="M791.974 250.724H788.325V253.764H791.974V250.724Z" fill="#3F3D56"/>
<path d="M810.83 248.293V245.253H807.181V248.293H810.526H810.83Z" fill="#3F3D56"/>
<path d="M810.526 250.724H807.181V253.764H810.83V250.724H810.526Z" fill="#3F3D56"/>
<path d="M816.913 245.253H813.263V248.293H816.913V245.253Z" fill="#3F3D56"/>
<path d="M816.913 250.724H813.263V253.764H816.913V250.724Z" fill="#3F3D56"/>
<path d="M836.376 187.501V184.461H832.727V187.501H836.073H836.376Z" fill="#3F3D56"/>
<path d="M836.073 189.933H832.727V192.972H836.376V189.933H836.073Z" fill="#3F3D56"/>
<path d="M842.459 184.461H838.81V187.501H842.459V184.461Z" fill="#3F3D56"/>
<path d="M842.459 189.932H838.81V192.972H842.459V189.932Z" fill="#3F3D56"/>
<path d="M836.376 204.523V201.483H832.727V204.523H836.073H836.376Z" fill="#3F3D56"/>
<path d="M836.073 206.954H832.727V209.994H836.376V206.954H836.073Z" fill="#3F3D56"/>
<path d="M842.459 201.483H838.81V204.522H842.459V201.483Z" fill="#3F3D56"/>
<path d="M842.459 206.954H838.81V209.994H842.459V206.954Z" fill="#3F3D56"/>
<path d="M836.376 221.544V218.504H832.727V221.544H836.073H836.376Z" fill="#3F3D56"/>
<path d="M836.073 223.976H832.727V227.015H836.376V223.976H836.073Z" fill="#3F3D56"/>
<path d="M842.459 218.505H838.81V221.544H842.459V218.505Z" fill="#3F3D56"/>
<path d="M842.459 223.976H838.81V227.015H842.459V223.976Z" fill="#3F3D56"/>
<path d="M836.376 238.566V235.526H832.727V238.566H836.073H836.376Z" fill="#3F3D56"/>
<path d="M836.073 240.998H832.727V244.037H836.376V240.998H836.073Z" fill="#3F3D56"/>
<path d="M842.459 235.526H838.81V238.566H842.459V235.526Z" fill="#3F3D56"/>
<path d="M842.459 240.998H838.81V244.037H842.459V240.998Z" fill="#3F3D56"/>
<path d="M817.521 187.501H782.242V194.796H817.521V187.501Z" fill="#3F3D56"/>
<path d="M817.521 202.091H782.242V209.386H817.521V202.091Z" fill="#3F3D56"/>
<path d="M817.521 216.681H782.242V223.976H817.521V216.681Z" fill="#3F3D56"/>
<path d="M817.521 231.271H782.242V238.566H817.521V231.271Z" fill="#3F3D56"/>
<path d="M757.392 226.843H756.51V261.667H757.392V226.843Z" fill="#3F3D56"/>
<path d="M765.533 231.281C765.589 243.458 757.017 253.369 757.017 253.369C757.017 253.369 748.354 243.537 748.298 231.36C748.242 219.183 756.814 209.272 756.814 209.272C756.814 209.272 765.477 219.103 765.533 231.281Z" fill="#6C63FF"/>
<path opacity="0.4" d="M203.778 157.569C209.117 157.569 213.446 153.243 213.446 147.906C213.446 142.57 209.117 138.243 203.778 138.243C198.438 138.243 194.11 142.57 194.11 147.906C194.11 153.243 198.438 157.569 203.778 157.569Z" fill="#4180E2"/>
<path d="M33.2828 255.292C34.0299 258.052 36.589 259.762 36.589 259.762C36.589 259.762 37.9367 256.996 37.1896 254.235C36.4425 251.475 33.8834 249.766 33.8834 249.766C33.8834 249.766 32.5357 252.531 33.2828 255.292Z" fill="#3F3D56"/>
<path d="M34.3805 254.698C36.4306 256.693 36.681 259.759 36.681 259.759C36.681 259.759 33.6075 259.591 31.5574 257.597C29.5072 255.602 29.2568 252.536 29.2568 252.536C29.2568 252.536 32.3303 252.704 34.3805 254.698Z" fill="#6C63FF"/>
<path d="M38.3578 234.543L36.5331 231.503L53.5641 216.913H97.3585V221.168L81.5439 238.19L63.2961 241.838L38.3578 234.543Z" fill="#3F3D56"/>
<path d="M104.897 225.475V215.964H99.1634V218.963L97.3586 216.913L82.7605 231.503L80.3272 233.935L77.2861 246.093L82.7605 259.467H110.74V232.111L104.897 225.475Z" fill="#CCCCCC"/>
<path d="M82.7603 231.503H36.5331V259.467H82.7603V231.503Z" fill="#F2F2F2"/>
<path d="M76.3736 240.318H66.6415V248.829H76.3736V240.318Z" fill="#3F3D56"/>
<path d="M62.6878 240.014H54.1723V259.467H62.6878V240.014Z" fill="#CCCCCC"/>
<path d="M44.4405 243.054V240.014H40.7911V243.054H44.1361H44.4405Z" fill="#3F3D56"/>
<path d="M44.1361 245.485H40.7911V248.525H44.4405V245.485H44.1361Z" fill="#3F3D56"/>
<path d="M50.5228 240.014H46.8733V243.054H50.5228V240.014Z" fill="#3F3D56"/>
<path d="M50.5228 245.485H46.8733V248.525H50.5228V245.485Z" fill="#3F3D56"/>
<path d="M95.8375 243.358V240.318H92.1877V243.358H95.5332H95.8375Z" fill="#3F3D56"/>
<path d="M95.5332 245.789H92.1877V248.829H95.8375V245.789H95.5332Z" fill="#3F3D56"/>
<path d="M101.92 240.318H98.2706V243.358H101.92V240.318Z" fill="#3F3D56"/>
<path d="M101.92 245.789H98.2706V248.829H101.92V245.789Z" fill="#3F3D56"/>
<path d="M214.34 234.543L212.515 231.503L229.546 216.913H273.34V221.168L257.526 238.19L239.278 241.838L214.34 234.543Z" fill="#3F3D56"/>
<path d="M280.879 225.475V215.964H275.145V218.963L273.34 216.913L258.742 231.503L256.309 233.935L253.268 246.093L258.742 259.467H286.722V232.111L280.879 225.475Z" fill="#CCCCCC"/>
<path d="M258.742 231.503H212.515V259.467H258.742V231.503Z" fill="#F2F2F2"/>
<path d="M252.356 240.318H242.624V248.829H252.356V240.318Z" fill="#3F3D56"/>
<path d="M238.67 240.014H230.154V259.467H238.67V240.014Z" fill="#CCCCCC"/>
<path d="M220.422 243.054V240.014H216.773V243.054H220.118H220.422Z" fill="#3F3D56"/>
<path d="M220.118 245.485H216.773V248.525H220.422V245.485H220.118Z" fill="#3F3D56"/>
<path d="M226.505 240.014H222.855V243.054H226.505V240.014Z" fill="#3F3D56"/>
<path d="M226.505 245.485H222.855V248.525H226.505V245.485Z" fill="#3F3D56"/>
<path d="M271.82 243.358V240.318H268.17V243.358H271.515H271.82Z" fill="#3F3D56"/>
<path d="M271.515 245.789H268.17V248.829H271.82V245.789H271.515Z" fill="#3F3D56"/>
<path d="M277.902 240.318H274.253V243.358H277.902V240.318Z" fill="#3F3D56"/>
<path d="M277.902 245.789H274.253V248.829H277.902V245.789Z" fill="#3F3D56"/>
<path d="M132.029 183.478L128.988 181.046L146.019 165.848H189.204V179.222L161.225 198.068L132.029 183.478Z" fill="#3F3D56"/>
<path d="M197.078 174.373V166.151H191.344V168.165L189.204 165.848L175.215 181.046L169.741 184.693L161.252 246.673L174.053 259.467H203.803V181.654L197.078 174.373Z" fill="#CCCCCC"/>
<path d="M175.215 181.046H128.987V259.467H175.215V181.046Z" fill="#F2F2F2"/>
<path d="M155.446 240.318H146.931V259.467H155.446V240.318Z" fill="#CCCCCC"/>
<path d="M137.807 245.789V242.75H134.158V245.789H137.503H137.807Z" fill="#3F3D56"/>
<path d="M137.503 248.221H134.158V251.261H137.807V248.221H137.503Z" fill="#3F3D56"/>
<path d="M143.89 242.75H140.24V245.789H143.89V242.75Z" fill="#3F3D56"/>
<path d="M143.89 248.221H140.24V251.26H143.89V248.221Z" fill="#3F3D56"/>
<path d="M162.745 245.789V242.75H159.096V245.789H162.442H162.745Z" fill="#3F3D56"/>
<path d="M162.442 248.221H159.096V251.261H162.745V248.221H162.442Z" fill="#3F3D56"/>
<path d="M168.828 242.75H165.179V245.789H168.828V242.75Z" fill="#3F3D56"/>
<path d="M168.828 248.221H165.179V251.26H168.828V248.221Z" fill="#3F3D56"/>
<path d="M188.292 184.997V181.958H184.643V184.997H187.988H188.292Z" fill="#3F3D56"/>
<path d="M187.988 187.429H184.643V190.469H188.292V187.429H187.988Z" fill="#3F3D56"/>
<path d="M194.375 181.958H190.725V184.997H194.375V181.958Z" fill="#3F3D56"/>
<path d="M194.375 187.429H190.725V190.469H194.375V187.429Z" fill="#3F3D56"/>
<path d="M188.292 202.019V198.979H184.643V202.019H187.988H188.292Z" fill="#3F3D56"/>
<path d="M187.988 204.451H184.643V207.49H188.292V204.451H187.988Z" fill="#3F3D56"/>
<path d="M194.375 198.979H190.725V202.019H194.375V198.979Z" fill="#3F3D56"/>
<path d="M194.375 204.451H190.725V207.49H194.375V204.451Z" fill="#3F3D56"/>
<path d="M188.292 219.041V216.001H184.643V219.041H187.988H188.292Z" fill="#3F3D56"/>
<path d="M187.988 221.473H184.643V224.512H188.292V221.473H187.988Z" fill="#3F3D56"/>
<path d="M194.375 216.001H190.725V219.041H194.375V216.001Z" fill="#3F3D56"/>
<path d="M194.375 221.472H190.725V224.512H194.375V221.472Z" fill="#3F3D56"/>
<path d="M188.292 236.063V233.023H184.643V236.063H187.988H188.292Z" fill="#3F3D56"/>
<path d="M187.988 238.494H184.643V241.534H188.292V238.494H187.988Z" fill="#3F3D56"/>
<path d="M194.375 233.023H190.725V236.063H194.375V233.023Z" fill="#3F3D56"/>
<path d="M194.375 238.494H190.725V241.534H194.375V238.494Z" fill="#3F3D56"/>
<path d="M169.436 184.997H134.158V192.292H169.436V184.997Z" fill="#3F3D56"/>
<path d="M169.436 199.587H134.158V206.882H169.436V199.587Z" fill="#3F3D56"/>
<path d="M169.436 214.177H134.158V221.472H169.436V214.177Z" fill="#3F3D56"/>
<path d="M169.436 228.767H134.158V236.063H169.436V228.767Z" fill="#3F3D56"/>
<path d="M120.334 224.339H119.452V259.164H120.334V224.339Z" fill="#3F3D56"/>
<path d="M128.475 228.777C128.531 240.955 119.959 250.866 119.959 250.866C119.959 250.866 111.296 241.034 111.24 228.857C111.184 216.679 119.756 206.768 119.756 206.768C119.756 206.768 128.419 216.6 128.475 228.777Z" fill="#4180E2"/>
<path d="M208.546 224.339H207.663V259.164H208.546V224.339Z" fill="#3F3D56"/>
<path d="M216.687 228.777C216.743 240.955 208.171 250.866 208.171 250.866C208.171 250.866 199.508 241.034 199.451 228.857C199.395 216.679 207.967 206.768 207.967 206.768C207.967 206.768 216.63 216.6 216.687 228.777Z" fill="#4180E2"/>
<path d="M157.446 96.0408C163.536 96.0408 168.473 91.1068 168.473 85.0204C168.473 78.934 163.536 74 157.446 74C151.357 74 146.42 78.934 146.42 85.0204C146.42 91.1068 151.357 96.0408 157.446 96.0408Z" fill="#F2F2F2"/>
</svg>
